{
  "buildFiles": [
    "/home/sunil/Android/Sdk/ndk-bundle/build/cmake/android.toolchain.cmake",
    "/home/sunil/Android/Sdk/ndk-bundle/build/cmake/platforms.cmake",
    "/media/sunil/AnadroidStudioProjects/Brdream11Project/BrDream11/app/src/origin11/CMakeLists.txt"
  ],
  "cleanCommands": [
    "/home/sunil/Android/Sdk/cmake/3.10.2.4988404/bin/ninja -C \"/media/sunil/AnadroidStudioProjects/Brdream11Project/BrDream11/app/.cxx/cmake/origin11DevRelease/x86_64\" clean"
  ],
  "buildTargetsCommand": "/home/sunil/Android/Sdk/cmake/3.10.2.4988404/bin/ninja -C \"/media/sunil/AnadroidStudioProjects/Brdream11Project/BrDream11/app/.cxx/cmake/origin11DevRelease/x86_64\" {LIST_OF_TARGETS_TO_BUILD}",
  "libraries": {
    "rest-Release-x86_64": {
      "artifactName": "rest",
      "buildCommand": "/home/sunil/Android/Sdk/cmake/3.10.2.4988404/bin/ninja -C \"/media/sunil/AnadroidStudioProjects/Brdream11Project/BrDream11/app/.cxx/cmake/origin11DevRelease/x86_64\" rest",
      "abi": "x86_64",
      "output": "/media/sunil/AnadroidStudioProjects/Brdream11Project/BrDream11/app/build/intermediates/cmake/origin11DevRelease/obj/x86_64/librest.so"
    }
  }
}