{
  "variant": {
    "module": {
      "rootBuildGradleFolder": "/media/sunil/AnadroidStudioProjects/Brdream11Project/BrDream11",
      "sdkFolder": "/home/sunil/Android/Sdk",
      "isNativeCompilerSettingsCacheEnabled": false,
      "isBuildOnlyTargetAbiEnabled": true,
      "splitsAbiFilterSet": [],
      "intermediatesFolder": "/media/sunil/AnadroidStudioProjects/Brdream11Project/BrDream11/app/build/intermediates",
      "gradleModulePathName": ":app",
      "moduleRootFolder": "/media/sunil/AnadroidStudioProjects/Brdream11Project/BrDream11/app",
      "makeFile": "/media/sunil/AnadroidStudioProjects/Brdream11Project/BrDream11/app/src/star11/CMakeLists.txt",
      "buildSystem": "CMAKE",
      "compilerSettingsCacheFolder": "/media/sunil/AnadroidStudioProjects/Brdream11Project/BrDream11/.cxx",
      "cxxFolder": "/media/sunil/AnadroidStudioProjects/Brdream11Project/BrDream11/app/.cxx",
      "ndkFolder": "/home/sunil/Android/Sdk/ndk-bundle",
      "ndkVersion": "20.0.5594570",
      "ndkSupportedAbiList": [
        "ARMEABI_V7A",
        "ARM64_V8A",
        "X86",
        "X86_64"
      ],
      "ndkDefaultAbiList": [
        "ARMEABI_V7A",
        "ARM64_V8A",
        "X86",
        "X86_64"
      ],
      "cmakeToolchainFile": "."
    },
    "buildSystemArgumentList": [],
    "cFlagList": [],
    "cppFlagsList": [
      ""
    ],
    "variantName": "star11DevDebug",
    "soFolder": "/media/sunil/AnadroidStudioProjects/Brdream11Project/BrDream11/app/build/intermediates/cmake/star11DevDebug/lib",
    "objFolder": "/media/sunil/AnadroidStudioProjects/Brdream11Project/BrDream11/app/build/intermediates/cmake/star11DevDebug/obj",
    "jsonFolder": "/media/sunil/AnadroidStudioProjects/Brdream11Project/BrDream11/app/.cxx/cmake/star11DevDebug",
    "gradleBuildOutputFolder": "/media/sunil/AnadroidStudioProjects/Brdream11Project/BrDream11/app/.cxx/cxx/star11DevDebug",
    "isDebuggableEnabled": true,
    "validAbiList": [
      "ARMEABI_V7A",
      "ARM64_V8A",
      "X86",
      "X86_64"
    ],
    "buildTargetSet": []
  },
  "abi": "X86_64",
  "abiPlatformVersion": 21,
  "cxxBuildFolder": "/media/sunil/AnadroidStudioProjects/Brdream11Project/BrDream11/app/.cxx/cmake/star11DevDebug/x86_64",
  "jsonFile": "/media/sunil/AnadroidStudioProjects/Brdream11Project/BrDream11/app/.cxx/cmake/star11DevDebug/x86_64/android_gradle_build.json",
  "gradleBuildOutputFolder": "/media/sunil/AnadroidStudioProjects/Brdream11Project/BrDream11/app/.cxx/cxx/star11DevDebug/x86_64",
  "objFolder": "/media/sunil/AnadroidStudioProjects/Brdream11Project/BrDream11/app/build/intermediates/cmake/star11DevDebug/obj/x86_64",
  "buildCommandFile": "/media/sunil/AnadroidStudioProjects/Brdream11Project/BrDream11/app/.cxx/cmake/star11DevDebug/x86_64/build_command.txt",
  "buildOutputFile": "/media/sunil/AnadroidStudioProjects/Brdream11Project/BrDream11/app/.cxx/cmake/star11DevDebug/x86_64/build_output.txt",
  "modelOutputFile": "/media/sunil/AnadroidStudioProjects/Brdream11Project/BrDream11/app/.cxx/cmake/star11DevDebug/x86_64/build_model.json",
  "cmake": {
    "cmakeListsWrapperFile": "/media/sunil/AnadroidStudioProjects/Brdream11Project/BrDream11/app/.cxx/cxx/star11DevDebug/x86_64/CMakeLists.txt",
    "toolchainWrapperFile": "/media/sunil/AnadroidStudioProjects/Brdream11Project/BrDream11/app/.cxx/cxx/star11DevDebug/x86_64/android_gradle_build.toolchain.cmake",
    "buildGenerationStateFile": "/media/sunil/AnadroidStudioProjects/Brdream11Project/BrDream11/app/.cxx/cxx/star11DevDebug/x86_64/build_generation_state.json",
    "cacheKeyFile": "/media/sunil/AnadroidStudioProjects/Brdream11Project/BrDream11/app/.cxx/cxx/star11DevDebug/x86_64/compiler_cache_key.json",
    "compilerCacheUseFile": "/media/sunil/AnadroidStudioProjects/Brdream11Project/BrDream11/app/.cxx/cxx/star11DevDebug/x86_64/compiler_cache_use.json",
    "compilerCacheWriteFile": "/media/sunil/AnadroidStudioProjects/Brdream11Project/BrDream11/app/.cxx/cxx/star11DevDebug/x86_64/compiler_cache_write.json",
    "toolchainSettingsFromCacheFile": "/media/sunil/AnadroidStudioProjects/Brdream11Project/BrDream11/app/.cxx/cxx/star11DevDebug/x86_64/compiler_settings_cache.cmake",
    "cmakeWrappingBaseFolder": "."
  },
  "jsonGenerationLoggingRecordFile": "/media/sunil/AnadroidStudioProjects/Brdream11Project/BrDream11/app/.cxx/cmake/star11DevDebug/x86_64/json_generation_record.json",
  "compileCommandsJsonFile": "/media/sunil/AnadroidStudioProjects/Brdream11Project/BrDream11/app/.cxx/cmake/star11DevDebug/x86_64/compile_commands.json"
}