[
{
  "directory": "/home/android-satheesh/AndroidStudioProjects/Pick11/app/.cxx/cmake/sport11DevDebug/x86",
  "command": "/home/android-satheesh/Android/Sdk/ndk/20.1.5948944/toolchains/llvm/prebuilt/linux-x86_64/bin/clang++ --target=i686-none-linux-android21 --gcc-toolchain=/home/android-satheesh/Android/Sdk/ndk/20.1.5948944/toolchains/llvm/prebuilt/linux-x86_64 --sysroot=/home/android-satheesh/Android/Sdk/ndk/20.1.5948944/toolchains/llvm/prebuilt/linux-x86_64/sysroot  -Drest_EXPORTS -I/home/android-satheesh/AndroidStudioProjects/Pick11/app/src/sport11/../dev/cpp/include  -g -DANDROID -fdata-sections -ffunction-sections -funwind-tables -fstack-protector-strong -no-canonical-prefixes -mstackrealign -fno-addrsig -Wa,--noexecstack -Wformat -Werror=format-security   -O0 -fno-limit-debug-info  -fPIC   -o CMakeFiles/rest.dir/home/android-satheesh/AndroidStudioProjects/Pick11/app/src/dev/cpp/rest.cpp.o -c /home/android-satheesh/AndroidStudioProjects/Pick11/app/src/dev/cpp/rest.cpp",
  "file": "/home/android-satheesh/AndroidStudioProjects/Pick11/app/src/dev/cpp/rest.cpp"
},

{
  "directory": "/home/android-satheesh/AndroidStudioProjects/Pick11/app/.cxx/cmake/sport11DevDebug/x86",
  "command": "/home/android-satheesh/Android/Sdk/ndk/20.1.5948944/toolchains/llvm/prebuilt/linux-x86_64/bin/clang++ --target=i686-none-linux-android21 --gcc-toolchain=/home/android-satheesh/Android/Sdk/ndk/20.1.5948944/toolchains/llvm/prebuilt/linux-x86_64 --sysroot=/home/android-satheesh/Android/Sdk/ndk/20.1.5948944/toolchains/llvm/prebuilt/linux-x86_64/sysroot  -Drest_EXPORTS -I/home/android-satheesh/AndroidStudioProjects/Pick11/app/src/sport11/../dev/cpp/include  -g -DANDROID -fdata-sections -ffunction-sections -funwind-tables -fstack-protector-strong -no-canonical-prefixes -mstackrealign -fno-addrsig -Wa,--noexecstack -Wformat -Werror=format-security   -O0 -fno-limit-debug-info  -fPIC   -o CMakeFiles/rest.dir/cpp/main.cpp.o -c /home/android-satheesh/AndroidStudioProjects/Pick11/app/src/sport11/cpp/main.cpp",
  "file": "/home/android-satheesh/AndroidStudioProjects/Pick11/app/src/sport11/cpp/main.cpp"
}
]