{
  "buildFiles": [
    "/home/sunil/Android/Sdk/ndk-bundle/build/cmake/android.toolchain.cmake",
    "/home/sunil/Android/Sdk/ndk-bundle/build/cmake/platforms.cmake",
    "/media/sunil/AnadroidStudioProjects/Brdream11Project/BrDream11/app/src/brdream11/CMakeLists.txt"
  ],
  "cleanCommands": [
    "/home/sunil/Android/Sdk/cmake/3.10.2.4988404/bin/ninja -C \"/media/sunil/AnadroidStudioProjects/Brdream11Project/BrDream11/app/.cxx/cmake/brdream11DevRelease/armeabi-v7a\" clean"
  ],
  "buildTargetsCommand": "/home/sunil/Android/Sdk/cmake/3.10.2.4988404/bin/ninja -C \"/media/sunil/AnadroidStudioProjects/Brdream11Project/BrDream11/app/.cxx/cmake/brdream11DevRelease/armeabi-v7a\" {LIST_OF_TARGETS_TO_BUILD}",
  "libraries": {
    "rest-Release-armeabi-v7a": {
      "artifactName": "rest",
      "buildCommand": "/home/sunil/Android/Sdk/cmake/3.10.2.4988404/bin/ninja -C \"/media/sunil/AnadroidStudioProjects/Brdream11Project/BrDream11/app/.cxx/cmake/brdream11DevRelease/armeabi-v7a\" rest",
      "abi": "armeabi-v7a",
      "output": "/media/sunil/AnadroidStudioProjects/Brdream11Project/BrDream11/app/build/intermediates/cmake/brdream11DevRelease/obj/armeabi-v7a/librest.so"
    }
  }
}