{
  "buildFiles": [
    "/home/sunil/Android/Sdk/ndk-bundle/build/cmake/android.toolchain.cmake",
    "/home/sunil/Android/Sdk/ndk-bundle/build/cmake/platforms.cmake",
    "/media/sunil/AnadroidStudioProjects/Brdream11Project/BrDream11/app/src/brdream11/CMakeLists.txt"
  ],
  "cleanCommands": [
    "/home/sunil/Android/Sdk/cmake/3.10.2.4988404/bin/ninja -C \"/media/sunil/AnadroidStudioProjects/Brdream11Project/BrDream11/app/.cxx/cmake/brdream11DevDebug/x86\" clean"
  ],
  "buildTargetsCommand": "/home/sunil/Android/Sdk/cmake/3.10.2.4988404/bin/ninja -C \"/media/sunil/AnadroidStudioProjects/Brdream11Project/BrDream11/app/.cxx/cmake/brdream11DevDebug/x86\" {LIST_OF_TARGETS_TO_BUILD}",
  "libraries": {
    "rest-Debug-x86": {
      "artifactName": "rest",
      "buildCommand": "/home/sunil/Android/Sdk/cmake/3.10.2.4988404/bin/ninja -C \"/media/sunil/AnadroidStudioProjects/Brdream11Project/BrDream11/app/.cxx/cmake/brdream11DevDebug/x86\" rest",
      "abi": "x86",
      "output": "/media/sunil/AnadroidStudioProjects/Brdream11Project/BrDream11/app/build/intermediates/cmake/brdream11DevDebug/obj/x86/librest.so"
    }
  }
}