{
  "stringTable": {
    "0": "/media/sunil/AnadroidStudioProjects/Brdream11Project/BrDream11/app/.cxx/cmake/worldpro11DevDebug/armeabi-v7a",
    "1": "--target=armv7-none-linux-androideabi21 --gcc-toolchain=/home/sunil/Android/Sdk/ndk-bundle/toolchains/llvm/prebuilt/linux-x86_64 --sysroot=/home/sunil/Android/Sdk/ndk-bundle/toolchains/llvm/prebuilt/linux-x86_64/sysroot -Drest_EXPORTS -I/media/sunil/AnadroidStudioProjects/Brdream11Project/BrDream11/app/src/worldpro11/../dev/cpp/include -g -DANDROID -fdata-sections -ffunction-sections -funwind-tables -fstack-protector-strong -no-canonical-prefixes -fno-addrsig -march=armv7-a -mthumb -Wa,--noexecstack -Wformat -Werror=format-security -O0 -fno-limit-debug-info -fPIC"
  },
  "buildFiles": [
    "/home/sunil/Android/Sdk/ndk-bundle/build/cmake/android.toolchain.cmake",
    "/home/sunil/Android/Sdk/ndk-bundle/build/cmake/platforms.cmake",
    "/media/sunil/AnadroidStudioProjects/Brdream11Project/BrDream11/app/src/worldpro11/CMakeLists.txt"
  ],
  "cleanCommands": [
    "/home/sunil/Android/Sdk/cmake/3.10.2.4988404/bin/ninja -C \"/media/sunil/AnadroidStudioProjects/Brdream11Project/BrDream11/app/.cxx/cmake/worldpro11DevDebug/armeabi-v7a\" clean"
  ],
  "buildTargetsCommand": "/home/sunil/Android/Sdk/cmake/3.10.2.4988404/bin/ninja -C \"/media/sunil/AnadroidStudioProjects/Brdream11Project/BrDream11/app/.cxx/cmake/worldpro11DevDebug/armeabi-v7a\" {LIST_OF_TARGETS_TO_BUILD}",
  "libraries": {
    "rest-Debug-armeabi-v7a": {
      "buildCommand": "/home/sunil/Android/Sdk/cmake/3.10.2.4988404/bin/ninja -C \"/media/sunil/AnadroidStudioProjects/Brdream11Project/BrDream11/app/.cxx/cmake/worldpro11DevDebug/armeabi-v7a\" rest",
      "buildType": "debug",
      "toolchain": "4194161668",
      "abi": "armeabi-v7a",
      "artifactName": "rest",
      "files": [
        {
          "src": "/media/sunil/AnadroidStudioProjects/Brdream11Project/BrDream11/app/src/dev/cpp/rest.cpp",
          "flagsOrdinal": 1,
          "workingDirectoryOrdinal": 0
        },
        {
          "src": "/media/sunil/AnadroidStudioProjects/Brdream11Project/BrDream11/app/src/worldpro11/cpp/main.cpp",
          "flagsOrdinal": 1,
          "workingDirectoryOrdinal": 0
        }
      ],
      "headers": [],
      "output": "/media/sunil/AnadroidStudioProjects/Brdream11Project/BrDream11/app/build/intermediates/cmake/worldpro11DevDebug/obj/armeabi-v7a/librest.so"
    }
  },
  "toolchains": {
    "4194161668": {
      "cppCompilerExecutable": "/home/sunil/Android/Sdk/ndk-bundle/toolchains/llvm/prebuilt/linux-x86_64/bin/clang++"
    }
  },
  "cFileExtensions": [],
  "cppFileExtensions": [
    "cpp"
  ]
}