[
  {
    "level": "INFO",
    "message": "Start JSON generation. Platform version: 21 min SDK version: x86_64"
  },
  {
    "level": "INFO",
    "message": "JSON \u0027/home/android-satheesh/AndroidStudioProjects/Pick11/app/.cxx/cmake/pick11DevDebug/x86_64/android_gradle_build.json\u0027 was up-to-date"
  },
  {
    "level": "INFO",
    "message": "JSON generation completed without problems"
  }
]