[
  {
    "level": "INFO",
    "message": "Start JSON generation. Platform version: 21 min SDK version: arm64-v8a"
  },
  {
    "level": "INFO",
    "message": "Trying to locate CMake in local SDK repository."
  },
  {
    "level": "INFO",
    "message": "- CMake found in SDK at \u0027/home/sunil/Android/Sdk/cmake/3.10.2.4988404\u0027 had version \u00273.10.2\u0027"
  },
  {
    "level": "INFO",
    "message": "CMake \u00273.6.0\u0027 found in SDK did not match requested version \u00273.10.2\u0027."
  },
  {
    "level": "INFO",
    "message": "JSON \u0027/media/sunil/AnadroidStudioProjects/Brdream11Project/BrDream11/app/.cxx/cmake/origin11DevRelease/arm64-v8a/android_gradle_build.json\u0027 was up-to-date"
  },
  {
    "level": "INFO",
    "message": "JSON generation completed without problems"
  }
]