[
{
  "directory": "/media/sunil/AnadroidStudioProjects/Brdream11Project/BrDream11/app/.cxx/cmake/dailyfantasyDevRelease/armeabi-v7a",
  "command": "/home/sunil/Android/Sdk/ndk-bundle/toolchains/llvm/prebuilt/linux-x86_64/bin/clang++ --target=armv7-none-linux-androideabi21 --gcc-toolchain=/home/sunil/Android/Sdk/ndk-bundle/toolchains/llvm/prebuilt/linux-x86_64 --sysroot=/home/sunil/Android/Sdk/ndk-bundle/toolchains/llvm/prebuilt/linux-x86_64/sysroot  -Drest_EXPORTS -I/media/sunil/AnadroidStudioProjects/Brdream11Project/BrDream11/app/src/dailyfantasy/../dev/cpp/include  -g -DANDROID -fdata-sections -ffunction-sections -funwind-tables -fstack-protector-strong -no-canonical-prefixes -fno-addrsig -march=armv7-a -mthumb -Wa,--noexecstack -Wformat -Werror=format-security   -Oz -DNDEBUG  -fPIC   -o CMakeFiles/rest.dir/media/sunil/AnadroidStudioProjects/Brdream11Project/BrDream11/app/src/dev/cpp/rest.cpp.o -c /media/sunil/AnadroidStudioProjects/Brdream11Project/BrDream11/app/src/dev/cpp/rest.cpp",
  "file": "/media/sunil/AnadroidStudioProjects/Brdream11Project/BrDream11/app/src/dev/cpp/rest.cpp"
},

{
  "directory": "/media/sunil/AnadroidStudioProjects/Brdream11Project/BrDream11/app/.cxx/cmake/dailyfantasyDevRelease/armeabi-v7a",
  "command": "/home/sunil/Android/Sdk/ndk-bundle/toolchains/llvm/prebuilt/linux-x86_64/bin/clang++ --target=armv7-none-linux-androideabi21 --gcc-toolchain=/home/sunil/Android/Sdk/ndk-bundle/toolchains/llvm/prebuilt/linux-x86_64 --sysroot=/home/sunil/Android/Sdk/ndk-bundle/toolchains/llvm/prebuilt/linux-x86_64/sysroot  -Drest_EXPORTS -I/media/sunil/AnadroidStudioProjects/Brdream11Project/BrDream11/app/src/dailyfantasy/../dev/cpp/include  -g -DANDROID -fdata-sections -ffunction-sections -funwind-tables -fstack-protector-strong -no-canonical-prefixes -fno-addrsig -march=armv7-a -mthumb -Wa,--noexecstack -Wformat -Werror=format-security   -Oz -DNDEBUG  -fPIC   -o CMakeFiles/rest.dir/cpp/main.cpp.o -c /media/sunil/AnadroidStudioProjects/Brdream11Project/BrDream11/app/src/dailyfantasy/cpp/main.cpp",
  "file": "/media/sunil/AnadroidStudioProjects/Brdream11Project/BrDream11/app/src/dailyfantasy/cpp/main.cpp"
}
]