{
  "stringTable": {
    "0": "/media/sunil/AnadroidStudioProjects/Brdream11Project/BrDream11/app/.cxx/cmake/worldpro11DevRelease/x86_64",
    "1": "--target=x86_64-none-linux-android21 --gcc-toolchain=/home/sunil/Android/Sdk/ndk-bundle/toolchains/llvm/prebuilt/linux-x86_64 --sysroot=/home/sunil/Android/Sdk/ndk-bundle/toolchains/llvm/prebuilt/linux-x86_64/sysroot -Drest_EXPORTS -I/media/sunil/AnadroidStudioProjects/Brdream11Project/BrDream11/app/src/worldpro11/../dev/cpp/include -g -DANDROID -fdata-sections -ffunction-sections -funwind-tables -fstack-protector-strong -no-canonical-prefixes -fno-addrsig -Wa,--noexecstack -Wformat -Werror=format-security -O2 -DNDEBUG -fPIC"
  },
  "buildFiles": [
    "/home/sunil/Android/Sdk/ndk-bundle/build/cmake/android.toolchain.cmake",
    "/home/sunil/Android/Sdk/ndk-bundle/build/cmake/platforms.cmake",
    "/media/sunil/AnadroidStudioProjects/Brdream11Project/BrDream11/app/src/worldpro11/CMakeLists.txt"
  ],
  "cleanCommands": [
    "/home/sunil/Android/Sdk/cmake/3.10.2.4988404/bin/ninja -C \"/media/sunil/AnadroidStudioProjects/Brdream11Project/BrDream11/app/.cxx/cmake/worldpro11DevRelease/x86_64\" clean"
  ],
  "buildTargetsCommand": "/home/sunil/Android/Sdk/cmake/3.10.2.4988404/bin/ninja -C \"/media/sunil/AnadroidStudioProjects/Brdream11Project/BrDream11/app/.cxx/cmake/worldpro11DevRelease/x86_64\" {LIST_OF_TARGETS_TO_BUILD}",
  "libraries": {
    "rest-Release-x86_64": {
      "buildCommand": "/home/sunil/Android/Sdk/cmake/3.10.2.4988404/bin/ninja -C \"/media/sunil/AnadroidStudioProjects/Brdream11Project/BrDream11/app/.cxx/cmake/worldpro11DevRelease/x86_64\" rest",
      "buildType": "release",
      "toolchain": "4194161668",
      "abi": "x86_64",
      "artifactName": "rest",
      "files": [
        {
          "src": "/media/sunil/AnadroidStudioProjects/Brdream11Project/BrDream11/app/src/dev/cpp/rest.cpp",
          "flagsOrdinal": 1,
          "workingDirectoryOrdinal": 0
        },
        {
          "src": "/media/sunil/AnadroidStudioProjects/Brdream11Project/BrDream11/app/src/worldpro11/cpp/main.cpp",
          "flagsOrdinal": 1,
          "workingDirectoryOrdinal": 0
        }
      ],
      "headers": [],
      "output": "/media/sunil/AnadroidStudioProjects/Brdream11Project/BrDream11/app/build/intermediates/cmake/worldpro11DevRelease/obj/x86_64/librest.so"
    }
  },
  "toolchains": {
    "4194161668": {
      "cppCompilerExecutable": "/home/sunil/Android/Sdk/ndk-bundle/toolchains/llvm/prebuilt/linux-x86_64/bin/clang++"
    }
  },
  "cFileExtensions": [],
  "cppFileExtensions": [
    "cpp"
  ]
}