{
  "buildFiles": [
    "/home/android-satheesh/Android/Sdk/ndk/20.1.5948944/build/cmake/android.toolchain.cmake",
    "/home/android-satheesh/AndroidStudioProjects/Pick11/app/src/sport11/CMakeLists.txt",
    "/home/android-satheesh/Android/Sdk/ndk/20.1.5948944/build/cmake/platforms.cmake"
  ],
  "cleanCommands": [
    "/home/android-satheesh/Android/Sdk/cmake/3.10.2.4988404/bin/ninja -C \"/home/android-satheesh/AndroidStudioProjects/Pick11/app/.cxx/cmake/sport11DevDebug/x86_64\" clean"
  ],
  "buildTargetsCommand": "/home/android-satheesh/Android/Sdk/cmake/3.10.2.4988404/bin/ninja -C \"/home/android-satheesh/AndroidStudioProjects/Pick11/app/.cxx/cmake/sport11DevDebug/x86_64\" {LIST_OF_TARGETS_TO_BUILD}",
  "libraries": {
    "rest-Debug-x86_64": {
      "artifactName": "rest",
      "buildCommand": "/home/android-satheesh/Android/Sdk/cmake/3.10.2.4988404/bin/ninja -C \"/home/android-satheesh/AndroidStudioProjects/Pick11/app/.cxx/cmake/sport11DevDebug/x86_64\" rest",
      "abi": "x86_64",
      "output": "/home/android-satheesh/AndroidStudioProjects/Pick11/app/build/intermediates/cmake/sport11DevDebug/obj/x86_64/librest.so"
    }
  }
}