{
  "buildFiles": [
    "/home/sunil/Android/Sdk/ndk-bundle/build/cmake/android.toolchain.cmake",
    "/home/sunil/Android/Sdk/ndk-bundle/build/cmake/platforms.cmake",
    "/media/sunil/AnadroidStudioProjects/Brdream11Project/BrDream11/app/src/origin11/CMakeLists.txt"
  ],
  "cleanCommands": [
    "/home/sunil/Android/Sdk/cmake/3.10.2.4988404/bin/ninja -C \"/media/sunil/AnadroidStudioProjects/Brdream11Project/BrDream11/app/.cxx/cmake/origin11DevDebug/arm64-v8a\" clean"
  ],
  "buildTargetsCommand": "/home/sunil/Android/Sdk/cmake/3.10.2.4988404/bin/ninja -C \"/media/sunil/AnadroidStudioProjects/Brdream11Project/BrDream11/app/.cxx/cmake/origin11DevDebug/arm64-v8a\" {LIST_OF_TARGETS_TO_BUILD}",
  "libraries": {
    "rest-Debug-arm64-v8a": {
      "artifactName": "rest",
      "buildCommand": "/home/sunil/Android/Sdk/cmake/3.10.2.4988404/bin/ninja -C \"/media/sunil/AnadroidStudioProjects/Brdream11Project/BrDream11/app/.cxx/cmake/origin11DevDebug/arm64-v8a\" rest",
      "abi": "arm64-v8a",
      "output": "/media/sunil/AnadroidStudioProjects/Brdream11Project/BrDream11/app/build/intermediates/cmake/origin11DevDebug/obj/arm64-v8a/librest.so"
    }
  }
}