[
{
  "directory": "/media/sunil/AnadroidStudioProjects/Brdream11Project/BrDream11/app/.cxx/cmake/origin11DevDebug/arm64-v8a",
  "command": "/home/sunil/Android/Sdk/ndk-bundle/toolchains/llvm/prebuilt/linux-x86_64/bin/clang++ --target=aarch64-none-linux-android21 --gcc-toolchain=/home/sunil/Android/Sdk/ndk-bundle/toolchains/llvm/prebuilt/linux-x86_64 --sysroot=/home/sunil/Android/Sdk/ndk-bundle/toolchains/llvm/prebuilt/linux-x86_64/sysroot  -Drest_EXPORTS -I/media/sunil/AnadroidStudioProjects/Brdream11Project/BrDream11/app/src/origin11/../dev/cpp/include  -g -DANDROID -fdata-sections -ffunction-sections -funwind-tables -fstack-protector-strong -no-canonical-prefixes -fno-addrsig -Wa,--noexecstack -Wformat -Werror=format-security   -O0 -fno-limit-debug-info  -fPIC   -o CMakeFiles/rest.dir/media/sunil/AnadroidStudioProjects/Brdream11Project/BrDream11/app/src/dev/cpp/rest.cpp.o -c /media/sunil/AnadroidStudioProjects/Brdream11Project/BrDream11/app/src/dev/cpp/rest.cpp",
  "file": "/media/sunil/AnadroidStudioProjects/Brdream11Project/BrDream11/app/src/dev/cpp/rest.cpp"
},

{
  "directory": "/media/sunil/AnadroidStudioProjects/Brdream11Project/BrDream11/app/.cxx/cmake/origin11DevDebug/arm64-v8a",
  "command": "/home/sunil/Android/Sdk/ndk-bundle/toolchains/llvm/prebuilt/linux-x86_64/bin/clang++ --target=aarch64-none-linux-android21 --gcc-toolchain=/home/sunil/Android/Sdk/ndk-bundle/toolchains/llvm/prebuilt/linux-x86_64 --sysroot=/home/sunil/Android/Sdk/ndk-bundle/toolchains/llvm/prebuilt/linux-x86_64/sysroot  -Drest_EXPORTS -I/media/sunil/AnadroidStudioProjects/Brdream11Project/BrDream11/app/src/origin11/../dev/cpp/include  -g -DANDROID -fdata-sections -ffunction-sections -funwind-tables -fstack-protector-strong -no-canonical-prefixes -fno-addrsig -Wa,--noexecstack -Wformat -Werror=format-security   -O0 -fno-limit-debug-info  -fPIC   -o CMakeFiles/rest.dir/cpp/main.cpp.o -c /media/sunil/AnadroidStudioProjects/Brdream11Project/BrDream11/app/src/origin11/cpp/main.cpp",
  "file": "/media/sunil/AnadroidStudioProjects/Brdream11Project/BrDream11/app/src/origin11/cpp/main.cpp"
}
]