[
  {
    "level": "INFO",
    "message": "Start JSON generation. Platform version: 21 min SDK version: x86"
  },
  {
    "level": "INFO",
    "message": "JSON \u0027/media/sunil/AnadroidStudioProjects/Brdream11Project/BrDream11/app/.cxx/cmake/worldpro11DevDebug/x86/android_gradle_build.json\u0027 was up-to-date"
  },
  {
    "level": "INFO",
    "message": "JSON generation completed without problems"
  }
]