{
  "stringTable": {
    "0": "/home/android-satheesh/AndroidStudioProjects/Pick11/app/.cxx/cmake/pick11DevDebug/armeabi-v7a",
    "1": "--target=armv7-none-linux-androideabi21 --gcc-toolchain=/home/android-satheesh/Android/Sdk/ndk/21.3.6528147/toolchains/llvm/prebuilt/linux-x86_64 --sysroot=/home/android-satheesh/Android/Sdk/ndk/21.3.6528147/toolchains/llvm/prebuilt/linux-x86_64/sysroot -Drest_EXPORTS -I/home/android-satheesh/AndroidStudioProjects/Pick11/app/src/pick11/../dev/cpp/include -g -DANDROID -fdata-sections -ffunction-sections -funwind-tables -fstack-protector-strong -no-canonical-prefixes -D_FORTIFY_SOURCE=2 -march=armv7-a -mthumb -Wformat -Werror=format-security -O0 -fno-limit-debug-info -fPIC"
  },
  "buildFiles": [
    "/home/android-satheesh/Android/Sdk/ndk/21.3.6528147/build/cmake/android.toolchain.cmake",
    "/home/android-satheesh/Android/Sdk/ndk/21.3.6528147/build/cmake/platforms.cmake",
    "/home/android-satheesh/AndroidStudioProjects/Pick11/app/src/pick11/CMakeLists.txt"
  ],
  "cleanCommands": [
    "/home/android-satheesh/Android/Sdk/cmake/3.10.2.4988404/bin/ninja -C \"/home/android-satheesh/AndroidStudioProjects/Pick11/app/.cxx/cmake/pick11DevDebug/armeabi-v7a\" clean"
  ],
  "buildTargetsCommand": "/home/android-satheesh/Android/Sdk/cmake/3.10.2.4988404/bin/ninja -C \"/home/android-satheesh/AndroidStudioProjects/Pick11/app/.cxx/cmake/pick11DevDebug/armeabi-v7a\" {LIST_OF_TARGETS_TO_BUILD}",
  "libraries": {
    "rest-Debug-armeabi-v7a": {
      "buildCommand": "/home/android-satheesh/Android/Sdk/cmake/3.10.2.4988404/bin/ninja -C \"/home/android-satheesh/AndroidStudioProjects/Pick11/app/.cxx/cmake/pick11DevDebug/armeabi-v7a\" rest",
      "buildType": "debug",
      "toolchain": "923654407",
      "abi": "armeabi-v7a",
      "artifactName": "rest",
      "files": [
        {
          "src": "/home/android-satheesh/AndroidStudioProjects/Pick11/app/src/dev/cpp/rest.cpp",
          "flagsOrdinal": 1,
          "workingDirectoryOrdinal": 0
        },
        {
          "src": "/home/android-satheesh/AndroidStudioProjects/Pick11/app/src/pick11/cpp/main.cpp",
          "flagsOrdinal": 1,
          "workingDirectoryOrdinal": 0
        }
      ],
      "headers": [],
      "output": "/home/android-satheesh/AndroidStudioProjects/Pick11/app/build/intermediates/cmake/pick11DevDebug/obj/armeabi-v7a/librest.so"
    }
  },
  "toolchains": {
    "923654407": {
      "cppCompilerExecutable": "/home/android-satheesh/Android/Sdk/ndk/21.3.6528147/toolchains/llvm/prebuilt/linux-x86_64/bin/clang++"
    }
  },
  "cFileExtensions": [],
  "cppFileExtensions": [
    "cpp"
  ]
}