[
  {
    "level": "INFO",
    "message": "Start JSON generation. Platform version: 21 min SDK version: arm64-v8a"
  },
  {
    "level": "INFO",
    "message": "JSON \u0027/media/sunil/AnadroidStudioProjects/Brdream11Project/BrDream11/app/.cxx/cmake/brdream11DevDebug/arm64-v8a/android_gradle_build.json\u0027 was up-to-date"
  },
  {
    "level": "INFO",
    "message": "JSON generation completed without problems"
  }
]