[
  {
    "level": "INFO",
    "message": "Start JSON generation. Platform version: 21 min SDK version: armeabi-v7a"
  },
  {
    "level": "INFO",
    "message": "rebuilding JSON /media/sunil/AnadroidStudioProjects/Brdream11Project/BrDream11/app/.cxx/cmake/origin11DevDebug/armeabi-v7a/android_gradle_build.json due to:"
  },
  {
    "level": "INFO",
    "message": "- expected json /media/sunil/AnadroidStudioProjects/Brdream11Project/BrDream11/app/.cxx/cmake/origin11DevDebug/armeabi-v7a/android_gradle_build.json file is not present, will remove stale json folder"
  },
  {
    "level": "INFO",
    "message": "- missing previous command file /media/sunil/AnadroidStudioProjects/Brdream11Project/BrDream11/app/.cxx/cmake/origin11DevDebug/armeabi-v7a/build_command.txt, will remove stale json folder"
  },
  {
    "level": "INFO",
    "message": "- command changed from previous, will remove stale json folder"
  },
  {
    "level": "INFO",
    "message": "removing stale contents from \u0027/media/sunil/AnadroidStudioProjects/Brdream11Project/BrDream11/app/.cxx/cmake/origin11DevDebug/armeabi-v7a\u0027"
  },
  {
    "level": "INFO",
    "message": "created folder \u0027/media/sunil/AnadroidStudioProjects/Brdream11Project/BrDream11/app/.cxx/cmake/origin11DevDebug/armeabi-v7a\u0027"
  },
  {
    "level": "INFO",
    "message": "executing cmake Executable : /home/sunil/Android/Sdk/cmake/3.10.2.4988404/bin/cmake\narguments : \n-H/media/sunil/AnadroidStudioProjects/Brdream11Project/BrDream11/app/src/origin11\n-B/media/sunil/AnadroidStudioProjects/Brdream11Project/BrDream11/app/.cxx/cmake/origin11DevDebug/armeabi-v7a\n-DANDROID_ABI\u003darmeabi-v7a\n-DANDROID_PLATFORM\u003dandroid-21\n-DCMAKE_LIBRARY_OUTPUT_DIRECTORY\u003d/media/sunil/AnadroidStudioProjects/Brdream11Project/BrDream11/app/build/intermediates/cmake/origin11DevDebug/obj/armeabi-v7a\n-DCMAKE_BUILD_TYPE\u003dDebug\n-DANDROID_NDK\u003d/home/sunil/Android/Sdk/ndk-bundle\n-DCMAKE_CXX_FLAGS\u003d\n-DCMAKE_SYSTEM_NAME\u003dAndroid\n-DCMAKE_ANDROID_ARCH_ABI\u003darmeabi-v7a\n-DCMAKE_SYSTEM_VERSION\u003d21\n-DCMAKE_EXPORT_COMPILE_COMMANDS\u003dON\n-DCMAKE_ANDROID_NDK\u003d/home/sunil/Android/Sdk/ndk-bundle\n-DCMAKE_TOOLCHAIN_FILE\u003d/home/sunil/Android/Sdk/ndk-bundle/build/cmake/android.toolchain.cmake\n-G Ninja\n-DCMAKE_MAKE_PROGRAM\u003d/home/sunil/Android/Sdk/cmake/3.10.2.4988404/bin/ninja\njvmArgs : \n\n"
  },
  {
    "level": "INFO",
    "message": "done executing cmake"
  },
  {
    "level": "INFO",
    "message": "write build output /media/sunil/AnadroidStudioProjects/Brdream11Project/BrDream11/app/.cxx/cmake/origin11DevDebug/armeabi-v7a/build_output.txt"
  },
  {
    "level": "INFO",
    "message": "write command file /media/sunil/AnadroidStudioProjects/Brdream11Project/BrDream11/app/.cxx/cmake/origin11DevDebug/armeabi-v7a/build_command.txt"
  },
  {
    "level": "INFO",
    "message": "JSON generation completed without problems"
  }
]