{
  "buildFiles": [
    "/media/sunil/AnadroidStudioProjects/Brdream11Project/BrDream11/app/src/brDream11/CMakeLists.txt"
  ],
  "cleanCommands": [
    "/home/sunil/Android/Sdk/cmake/3.6.4111459/bin/cmake --build /media/sunil/AnadroidStudioProjects/Brdream11Project/BrDream11/app/.cxx/cmake/brDream11DevDebug/armeabi-v7a --target clean"
  ],
  "libraries": {
    "rest-Debug-armeabi-v7a": {
      "artifactName": "rest",
      "buildCommand": "/home/sunil/Android/Sdk/cmake/3.6.4111459/bin/cmake --build /media/sunil/AnadroidStudioProjects/Brdream11Project/BrDream11/app/.cxx/cmake/brDream11DevDebug/armeabi-v7a --target rest",
      "abi": "armeabi-v7a",
      "output": "/media/sunil/AnadroidStudioProjects/Brdream11Project/BrDream11/app/build/intermediates/cmake/brDream11DevDebug/obj/armeabi-v7a/librest.so"
    }
  }
}