{
  "variant": {
    "module": {
      "rootBuildGradleFolder": "/media/sunil/AnadroidStudioProjects/Brdream11Project/BrDream11",
      "sdkFolder": "/home/sunil/Android/Sdk",
      "isNativeCompilerSettingsCacheEnabled": false,
      "isBuildOnlyTargetAbiEnabled": true,
      "splitsAbiFilterSet": [],
      "intermediatesFolder": "/media/sunil/AnadroidStudioProjects/Brdream11Project/BrDream11/app/build/intermediates",
      "gradleModulePathName": ":app",
      "moduleRootFolder": "/media/sunil/AnadroidStudioProjects/Brdream11Project/BrDream11/app",
      "makeFile": "/media/sunil/AnadroidStudioProjects/Brdream11Project/BrDream11/app/src/brdream11/CMakeLists.txt",
      "buildSystem": "CMAKE",
      "compilerSettingsCacheFolder": "/media/sunil/AnadroidStudioProjects/Brdream11Project/BrDream11/.cxx",
      "cxxFolder": "/media/sunil/AnadroidStudioProjects/Brdream11Project/BrDream11/app/.cxx",
      "ndkFolder": "/home/sunil/Android/Sdk/ndk-bundle",
      "ndkVersion": "20.0.5594570",
      "ndkSupportedAbiList": [
        "ARMEABI_V7A",
        "ARM64_V8A",
        "X86",
        "X86_64"
      ],
      "ndkDefaultAbiList": [
        "ARMEABI_V7A",
        "ARM64_V8A",
        "X86",
        "X86_64"
      ],
      "cmakeToolchainFile": "."
    },
    "buildSystemArgumentList": [],
    "cFlagList": [],
    "cppFlagsList": [
      ""
    ],
    "variantName": "brdream11DevDebug",
    "soFolder": "/media/sunil/AnadroidStudioProjects/Brdream11Project/BrDream11/app/build/intermediates/cmake/brdream11DevDebug/lib",
    "objFolder": "/media/sunil/AnadroidStudioProjects/Brdream11Project/BrDream11/app/build/intermediates/cmake/brdream11DevDebug/obj",
    "jsonFolder": "/media/sunil/AnadroidStudioProjects/Brdream11Project/BrDream11/app/.cxx/cmake/brdream11DevDebug",
    "gradleBuildOutputFolder": "/media/sunil/AnadroidStudioProjects/Brdream11Project/BrDream11/app/.cxx/cxx/brdream11DevDebug",
    "isDebuggableEnabled": true,
    "validAbiList": [
      "ARMEABI_V7A",
      "ARM64_V8A",
      "X86",
      "X86_64"
    ],
    "buildTargetSet": []
  },
  "abi": "ARMEABI_V7A",
  "abiPlatformVersion": 21,
  "cxxBuildFolder": "/media/sunil/AnadroidStudioProjects/Brdream11Project/BrDream11/app/.cxx/cmake/brdream11DevDebug/armeabi-v7a",
  "jsonFile": "/media/sunil/AnadroidStudioProjects/Brdream11Project/BrDream11/app/.cxx/cmake/brdream11DevDebug/armeabi-v7a/android_gradle_build.json",
  "gradleBuildOutputFolder": "/media/sunil/AnadroidStudioProjects/Brdream11Project/BrDream11/app/.cxx/cxx/brdream11DevDebug/armeabi-v7a",
  "objFolder": "/media/sunil/AnadroidStudioProjects/Brdream11Project/BrDream11/app/build/intermediates/cmake/brdream11DevDebug/obj/armeabi-v7a",
  "buildCommandFile": "/media/sunil/AnadroidStudioProjects/Brdream11Project/BrDream11/app/.cxx/cmake/brdream11DevDebug/armeabi-v7a/build_command.txt",
  "buildOutputFile": "/media/sunil/AnadroidStudioProjects/Brdream11Project/BrDream11/app/.cxx/cmake/brdream11DevDebug/armeabi-v7a/build_output.txt",
  "modelOutputFile": "/media/sunil/AnadroidStudioProjects/Brdream11Project/BrDream11/app/.cxx/cmake/brdream11DevDebug/armeabi-v7a/build_model.json",
  "cmake": {
    "cmakeListsWrapperFile": "/media/sunil/AnadroidStudioProjects/Brdream11Project/BrDream11/app/.cxx/cxx/brdream11DevDebug/armeabi-v7a/CMakeLists.txt",
    "toolchainWrapperFile": "/media/sunil/AnadroidStudioProjects/Brdream11Project/BrDream11/app/.cxx/cxx/brdream11DevDebug/armeabi-v7a/android_gradle_build.toolchain.cmake",
    "buildGenerationStateFile": "/media/sunil/AnadroidStudioProjects/Brdream11Project/BrDream11/app/.cxx/cxx/brdream11DevDebug/armeabi-v7a/build_generation_state.json",
    "cacheKeyFile": "/media/sunil/AnadroidStudioProjects/Brdream11Project/BrDream11/app/.cxx/cxx/brdream11DevDebug/armeabi-v7a/compiler_cache_key.json",
    "compilerCacheUseFile": "/media/sunil/AnadroidStudioProjects/Brdream11Project/BrDream11/app/.cxx/cxx/brdream11DevDebug/armeabi-v7a/compiler_cache_use.json",
    "compilerCacheWriteFile": "/media/sunil/AnadroidStudioProjects/Brdream11Project/BrDream11/app/.cxx/cxx/brdream11DevDebug/armeabi-v7a/compiler_cache_write.json",
    "toolchainSettingsFromCacheFile": "/media/sunil/AnadroidStudioProjects/Brdream11Project/BrDream11/app/.cxx/cxx/brdream11DevDebug/armeabi-v7a/compiler_settings_cache.cmake",
    "cmakeWrappingBaseFolder": "."
  },
  "jsonGenerationLoggingRecordFile": "/media/sunil/AnadroidStudioProjects/Brdream11Project/BrDream11/app/.cxx/cmake/brdream11DevDebug/armeabi-v7a/json_generation_record.json",
  "compileCommandsJsonFile": "/media/sunil/AnadroidStudioProjects/Brdream11Project/BrDream11/app/.cxx/cmake/brdream11DevDebug/armeabi-v7a/compile_commands.json"
}