{
  "buildFiles": [
    "/home/android-satheesh/Android/Sdk/ndk/21.3.6528147/build/cmake/android.toolchain.cmake",
    "/home/android-satheesh/Android/Sdk/ndk/21.3.6528147/build/cmake/platforms.cmake",
    "/home/android-satheesh/AndroidStudioProjects/Pick11/app/src/pick11/CMakeLists.txt"
  ],
  "cleanCommands": [
    "/home/android-satheesh/Android/Sdk/cmake/3.10.2.4988404/bin/ninja -C \"/home/android-satheesh/AndroidStudioProjects/Pick11/app/.cxx/cmake/pick11DevDebug/arm64-v8a\" clean"
  ],
  "buildTargetsCommand": "/home/android-satheesh/Android/Sdk/cmake/3.10.2.4988404/bin/ninja -C \"/home/android-satheesh/AndroidStudioProjects/Pick11/app/.cxx/cmake/pick11DevDebug/arm64-v8a\" {LIST_OF_TARGETS_TO_BUILD}",
  "libraries": {
    "rest-Debug-arm64-v8a": {
      "artifactName": "rest",
      "buildCommand": "/home/android-satheesh/Android/Sdk/cmake/3.10.2.4988404/bin/ninja -C \"/home/android-satheesh/AndroidStudioProjects/Pick11/app/.cxx/cmake/pick11DevDebug/arm64-v8a\" rest",
      "abi": "arm64-v8a",
      "output": "/home/android-satheesh/AndroidStudioProjects/Pick11/app/build/intermediates/cmake/pick11DevDebug/obj/arm64-v8a/librest.so"
    }
  }
}